{
    "info": "France employment sectors in 2016",
    "sectors": [
        {
            "label": "Agriculture",
            "amount": 754000
        },
        {
            "label": "Industry",
            "amount": 3626300
        },
        {
            "label": "Construction",
            "amount": 1699000
        },
        {
            "label": "Services",
            "amount": 20161000
        }
    ]
}
